…
```
## The following objects are masked from 'package:base':
## 
##     intersect, setdiff, setequal, union
```

```r
# Look at the gapminder dataset
gapminder
```

```
## # A tibble: 1,704 × 6
##    country     continent  year lifeExp      pop gdpPercap
##    <fct>       <fct>     <int>   <dbl>    <int>     <dbl>
##  1 Afghanistan Asia       1952    28.8  8425333      779.
##  2 Afghanistan Asia       1957    30.3  9240934      821.
##  3 Afghanistan Asia       1962    32.0 10267083      853.
##  4 Afghanistan Asia       1967    34.0 11537966      836.
##  5 Afghanistan Asia       1972    36.1 13079460      740.
##  6 Afghanistan Asia       1977    38.4 14880372      786.
##  7 Afghanistan Asia       1982    39.9 12881816      978.
##  8 Afghanistan Asia       1987    40.8 13867957      852.
##  9 Afghanistan Asia       1992    41.7 16317921      649.
## 10 Afghanistan Asia       1997    41.8 22227415      635.
## # … with 1,694 more rows
```
…
<center>**Arrange Verb**</center>

use arrange() to sort observations in ascending or descending order of a particular variable:


```r
# Sort in ascending order of lifeExp
gapminder %>%
    arrange(lifeExp)
```

```
## # A tibble: 1,704 × 6
##    country      continent  year lifeExp     pop gdpPercap
##    <fct>        <fct>     <int>   <dbl>   <int>     <dbl>
##  1 Rwanda       Africa     1992    23.6 7290203      737.
##  2 Afghanistan  Asia       1952    28.8 8425333      779.
##  3 Gambia       Africa     1952    30    284320      485.
##  4 Angola       Africa     1952    30.0 4232095     3521.
##  5 Sierra Leone Africa     1952    30.3 2143249      880.
##  6 Afghanistan  Asia       1957    30.3 9240934      821.
##  7 Cambodia     Asia       1977    31.2 6978607      525.
##  8 Mozambique   Africa     1952    31.3 6446316      469.
##  9 Sierra Leone Africa     1957    31.6 2295678     1004.
## 10 Burkina Faso Africa     1952    32.0 4469979      543.
## # … with 1,694 more rows
```

```r
# Sort in descending order of lifeExp
gapminder %>%
    arrange(desc(lifeExp))
```

```
## # A tibble: 1,704 × 6
##    country          continent  year lifeExp       pop gdpPercap
##    <fct>            <fct>     <int>   <dbl>     <int>     <dbl>
##  1 Japan            Asia       2007    82.6 127467972    31656.
##  2 Hong Kong, China Asia       2007    82.2   6980412    39725.
##  3 Japan            Asia       2002    82   127065841    28605.
##  4 Iceland          Europe     2007    81.8    301931    36181.
##  5 Switzerland      Europe     2007    81.7   7554661    37506.
##  6 Hong Kong, China Asia       2002    81.5   6762476    30209.
##  7 Australia        Oceania    2007    81.2  20434176    34435.
##  8 Spain            Europe     2007    80.9  40448191    28821.
##  9 Sweden           Europe     2007    80.9   9031088    33860.
## 10 Israel           Asia       2007    80.7   6426679    25523.
## # … with 1,694 more rows
```

<center>**Mutate Verb**</center>

`mutate()` changes or adds variables:


```r
# Use mutate to change lifeExp to be in months
gapminder %>%
    mutate(lifeExp = 12 * lifeExp)
```

```
## # A tibble: 1,704 × 6
##    country     continent  year lifeExp      pop gdpPercap
##    <fct>       <fct>     <int>   <dbl>    <int>     <dbl>
##  1 Afghanistan Asia       1952    346.  8425333      779.
##  2 Afghanistan Asia       1957    364.  9240934      821.
##  3 Afghanistan Asia       1962    384. 10267083      853.
##  4 Afghanistan Asia       1967    408. 11537966      836.
##  5 Afghanistan Asia       1972    433. 13079460      740.
##  6 Afghanistan Asia       1977    461. 14880372      786.
##  7 Afghanistan Asia       1982    478. 12881816      978.
##  8 Afghanistan Asia       1987    490. 13867957      852.
##  9 Afghanistan Asia       1992    500. 16317921      649.
## 10 Afghanistan Asia       1997    501. 22227415      635.
## # … with 1,694 more rows
```

```r
# Use mutate to create a new column called lifeExpMonths
gapminder %>%
    mutate(lifeExpMonths = 12 * lifeExp) 
```

```
## # A tibble: 1,704 × 7
##    country     continent  year lifeExp      pop gdpPercap lifeExpMonths
##    <fct>       <fct>     <int>   <dbl>    <int>     <dbl>         <dbl>
##  1 Afghanistan Asia       1952    28.8  8425333      779.          346.
##  2 Afghanistan Asia       1957    30.3  9240934      821.          364.
##  3 Afghanistan Asia       1962    32.0 10267083      853.          384.
##  4 Afghanistan Asia       1967    34.0 11537966      836.          408.
##  5 Afghanistan Asia       1972    36.1 13079460      740.          433.
##  6 Afghanistan Asia       1977    38.4 14880372      786.          461.
##  7 Afghanistan Asia       1982    39.9 12881816      978.          478.
##  8 Afghanistan Asia       1987    40.8 13867957      852.          490.
##  9 Afghanistan Asia       1992    41.7 16317921      649.          500.
## 10 Afghanistan Asia       1997    41.8 22227415      635.          501.
## # … with 1,694 more rows
```

<center>**Combining Filter, Mutate, And Arrange**</center>


```r
# Filter, mutate, and arrange the gapminder dataset
gapminder %>%
    filter(year == 2007) %>%
        mutate(lifeExpMonths = 12 * lifeExp) %>%
    arrange(desc(lifeExpMonths))
```

```
## # A tibble: 142 × 7
##    country          continent  year lifeExp       pop gdpPercap lifeExpMonths
##    <fct>            <fct>     <int>   <dbl>     <int>     <dbl>         <dbl>
##  1 Japan            Asia       2007    82.6 127467972    31656.          991.
##  2 Hong Kong, China Asia       2007    82.2   6980412    39725.          986.
##  3 Iceland          Europe     2007    81.8    301931    36181.          981.
##  4 Switzerland      Europe     2007    81.7   7554661    37506.          980.
##  5 Australia        Oceania    2007    81.2  20434176    34435.          975.
##  6 Spain            Europe     2007    80.9  40448191    28821.          971.
##  7 Sweden           Europe     2007    80.9   9031088    33860.          971.
##  8 Israel           Asia       2007    80.7   6426679    25523.          969.
##  9 France           Europe     2007    80.7  61083916    30470.          968.
## 10 Canada           Americas   2007    80.7  33390141    36319.          968.
## # … with 132 more rows
```
…
