…
```r
bike_share_rides %>%
  # Group by ride_id and date
  group_by(ride_id, date) %>%
  # Add duration_min_avg column
  mutate(duration_min_avg = mean(duration_mins)) %>%
  # Remove duplicates based on ride_id and date, keep all cols
  distinct(ride_id, date, .keep_all = TRUE) %>%
  # Remove duration_min column
  select(-duration_mins)
```

```
## # A tibble: 35,229 × 14
## # Groups:   ride_id, date [35,229]
##    ride_id date       duration        station_A_id station_A_name   station_B_id
##      <int> <date>     <chr>                  <dbl> <chr>                   <dbl>
##  1   52797 2017-04-15 1316.15 minutes           67 San Francisco C…           89
##  2   54540 2017-04-19 8.13 minutes              21 Montgomery St B…           64
##  3   87695 2017-04-14 24.85 minutes             16 Steuart St at M…          355
##  4   45619 2017-04-03 6.35 minutes              58 Market St at 10…          368
##  5   70832 2017-04-10 9.8 minutes               16 Steuart St at M…           81
##  6   96135 2017-04-18 17.47 minutes              6 The Embarcadero…           66
##  7   29928 2017-04-22 16.52 minutes              5 Powell St BART …          350
##  8   83331 2017-04-11 14.72 minutes             16 Steuart St at M…           91
##  9   72424 2017-04-05 4.12 minutes               5 Powell St BART …           62
## 10   25910 2017-04-20 25.77 minutes             81 Berry St at 4th…           81
## # … with 35,219 more rows, and 8 more variables: station_B_name <chr>,
## #   bike_id <dbl>, user_gender <chr>, user_birth_year <dbl>,
## #   user_birth_year_fct <fct>, duration_trimmed <chr>,
## #   duration_min_const <dbl>, duration_min_avg <dbl>
```
…
