5 Working with Data in the Tidyverse | R Programming Guidebook Project
…
## Rows: 3153 Columns: 14

## ── Column specification ────────────────────────────────────────────────────────
## Delimiter: ","
## chr (5): FIPS, STATE_FIPS, STATE, COUNTY, WINNER
## dbl (9): OBAMA, ROMNEY, OTHERS, TTL_VT, PCT_OBM, PCT_ROM, PCT_OTHR, PCT_WNR,...
## 
## ℹ Use `spec()` to retrieve the full column specification for this data.
## ℹ Specify the column types or set `show_col_types = FALSE` to quiet this message.

election

## # A tibble: 3,153 × 14
##    FIPS  STATE_FIPS STATE COUNTY   OBAMA ROMNEY OTHERS TTL_VT PCT_OBM PCT_ROM
##    <chr> <chr>      <chr> <chr>    <dbl>  <dbl>  <dbl>  <dbl>   <dbl>   <dbl>
##  1 01001 01         AL    Autauga   6363  17379    231  23973    26.5    72.5
##  2 01003 01         AL    Baldwin  18329  65772    887  84988    21.6    77.4
##  3 01005 01         AL    Barbour   5912   5550     55  11517    51.3    48.2
##  4 01007 01         AL    Bibb      2202   6132     86   8420    26.2    72.8
##  5 01009 01         AL    Blount    2970  20757    333  24060    12.3    86.3
##  6 01011 01         AL    Bullock   4061   1251     10   5322    76.3    23.5
##  7 01013 01         AL    Butler    4374   5087     41   9502    46.0    53.5
##  8 01015 01         AL    Calhoun  15500  30272    468  46240    33.5    65.5
##  9 01017 01         AL    Chambers  6871   7626    132  14629    47.0    52.1
## 10 01019 01         AL    Cherokee  2132   7506    154   9792    21.8    76.7
## # … with 3,143 more rows, and 4 more variables: PCT_OTHR <dbl>, WINNER <chr>,
## #   PCT_WNR <dbl>, group <dbl>
…
________________________

Group variables
None

Count the data

Distinct()

Use distinct() to find out how many different type of observations are there in one variable. To find out how many distinct states are there in the STATE variable:

election %>%
  distinct(STATE)

## # A tibble: 51 × 1
##    STATE
##    <chr>
##  1 AL   
##  2 AZ   
##  3 AR   
##  4 CA   
##  5 CO   
##  6 CT   
##  7 DE   
##  8 DC   
##  9 FL   
## 10 GA   
## # … with 41 more rows

Count()

count() adds a new column named n to store the counts. this count function basically does the group_by and summarize for you. count the number of counties in each state:

election %>%
  count(STATE)

## # A tibble: 51 × 2
##    STATE     n
##    <chr> <int>
##  1 AK       40
##  2 AL       67
##  3 AR       75
##  4 AZ       15
##  5 CA       58
##  6 CO       64
##  7 CT        8
##  8 DC        1
##  9 DE        3
## 10 FL       67
## # … with 41 more rows
…
For more details, go to the Cast A Factor And Examine Levels section of this chapter.

Recode Values

Use recode() function in the dplyr package. The recode function is to re-name the observations into something easier to understand.

Recode A Character Variable

election_CA <- election %>% filter(STATE == "CA")

election_CA %>% 
  mutate(STATE = recode(STATE, "CA" = "California"))

## # A tibble: 58 × 14
##    FIPS  STATE_FIPS STATE     COUNTY  OBAMA ROMNEY OTHERS TTL_VT PCT_OBM PCT_ROM
##    <chr> <chr>      <chr>     <chr>   <dbl>  <dbl>  <dbl>  <dbl>   <dbl>   <dbl>
##  1 06001 06         Californ… Alame… 469684 108182  17776 595642    78.9    18.2
##  2 06003 06         Californ… Alpine    389    236     28    653    59.6    36.1
##  3 06005 06         Californ… Amador   6830  10281    538  17649    38.7    58.3
##  4 06007 06         Californ… Butte   42669  44479   3604  90752    47.0    49.0
##  5 06009 06         Californ… Calav…   8670  12365    751  21786    39.8    56.8
##  6 06011 06         Californ… Colusa   2314   3601    119   6034    38.3    59.7
##  7 06013 06         Californ… Contr… 290824 136517  10885 438226    66.4    31.2
##  8 06015 06         Californ… Del N…   3791   4614    365   8770    43.2    52.6
##  9 06017 06         Californ… El Do…  35166  50973   2635  88774    39.6    57.4
## 10 06019 06         Californ… Fresno 129129 124490   5208 258827    49.9    48.1
## # … with 48 more rows, and 4 more variables: PCT_OTHR <dbl>, WINNER <chr>,
## #   PCT_WNR <dbl>, group <dbl>
…
